EESchema Schematic File Version 4
EELAYER 30 0
EELAYER END
$Descr A4 11693 8268
encoding utf-8
Sheet 1 1
Title "DiSEqC1.x LNB bias tee"
Date "2021-04-25"
Rev "A"
Comp "CC-BY-SA 4.0 DL1YE.com"
Comment1 ""
Comment2 ""
Comment3 ""
Comment4 ""
$EndDescr
$Comp
L Device:L_Small L1
U 1 1 60831138
P 2850 1050
F 0 "L1" V 3035 1050 50  0000 C CNN
F 1 "4u7" V 2944 1050 50  0000 C CNN
F 2 "knightshrub-Passives:SER1360" H 2850 1050 50  0001 C CNN
F 3 "~" H 2850 1050 50  0001 C CNN
F 4 "SER1360-472KLB" V 2850 1050 50  0001 C CNN "Mouser"
	1    2850 1050
	0    -1   -1   0   
$EndComp
$Comp
L Device:C_Small C8
U 1 1 608318F8
P 3900 2550
F 0 "C8" H 3992 2596 50  0000 L CNN
F 1 "22n" H 3992 2505 50  0000 L CNN
F 2 "Capacitor_SMD:C_0603_1608Metric_Pad1.08x0.95mm_HandSolder" H 3900 2550 50  0001 C CNN
F 3 "~" H 3900 2550 50  0001 C CNN
	1    3900 2550
	1    0    0    -1  
$EndComp
$Comp
L Device:R_Small R1
U 1 1 60832892
P 3600 2550
F 0 "R1" H 3541 2596 50  0000 R CNN
F 1 "120k" H 3541 2505 50  0000 R CNN
F 2 "Resistor_SMD:R_0603_1608Metric_Pad0.98x0.95mm_HandSolder" H 3600 2550 50  0001 C CNN
F 3 "~" H 3600 2550 50  0001 C CNN
	1    3600 2550
	-1   0    0    -1  
$EndComp
$Comp
L power:GND #PWR0101
U 1 1 6083328B
P 2600 2550
F 0 "#PWR0101" H 2600 2300 50  0001 C CNN
F 1 "GND" H 2605 2377 50  0000 C CNN
F 2 "" H 2600 2550 50  0001 C CNN
F 3 "" H 2600 2550 50  0001 C CNN
	1    2600 2550
	1    0    0    -1  
$EndComp
Wire Wire Line
	2600 2550 2600 2500
Wire Wire Line
	2600 2300 2650 2300
Wire Wire Line
	2650 2400 2600 2400
Connection ~ 2600 2400
Wire Wire Line
	2600 2400 2600 2300
$Comp
L Device:C_Small C5
U 1 1 608346C8
P 2150 1650
F 0 "C5" H 2242 1696 50  0000 L CNN
F 1 "1u" H 2242 1605 50  0000 L CNN
F 2 "Capacitor_SMD:C_0805_2012Metric_Pad1.18x1.45mm_HandSolder" H 2150 1650 50  0001 C CNN
F 3 "~" H 2150 1650 50  0001 C CNN
	1    2150 1650
	1    0    0    -1  
$EndComp
$Comp
L Device:C_Small C6
U 1 1 60836C7A
P 3650 1750
F 0 "C6" H 3558 1704 50  0000 R CNN
F 1 "100n" H 3558 1795 50  0000 R CNN
F 2 "Capacitor_SMD:C_0603_1608Metric_Pad1.08x0.95mm_HandSolder" H 3650 1750 50  0001 C CNN
F 3 "~" H 3650 1750 50  0001 C CNN
	1    3650 1750
	-1   0    0    1   
$EndComp
$Comp
L Device:D_Schottky_Small D1
U 1 1 6083A144
P 3350 1050
F 0 "D1" H 3350 843 50  0000 C CNN
F 1 "PMEG40T50EPX" H 3350 934 50  0000 C CNN
F 2 "Diode_SMD:D_SOD-128" V 3350 1050 50  0001 C CNN
F 3 "~" V 3350 1050 50  0001 C CNN
	1    3350 1050
	-1   0    0    1   
$EndComp
$Comp
L Device:D_Schottky_Small D2
U 1 1 6083CFC0
P 4000 1750
F 0 "D2" V 3954 1820 50  0000 L CNN
F 1 "PMEG40T50EPX" V 4045 1820 50  0000 L CNN
F 2 "Diode_SMD:D_SOD-128" V 4000 1750 50  0001 C CNN
F 3 "~" V 4000 1750 50  0001 C CNN
	1    4000 1750
	0    1    1    0   
$EndComp
$Comp
L power:GND #PWR0102
U 1 1 60842544
P 3600 2700
F 0 "#PWR0102" H 3600 2450 50  0001 C CNN
F 1 "GND" H 3605 2527 50  0000 C CNN
F 2 "" H 3600 2700 50  0001 C CNN
F 3 "" H 3600 2700 50  0001 C CNN
	1    3600 2700
	1    0    0    -1  
$EndComp
$Comp
L power:GND #PWR0103
U 1 1 608427BE
P 3900 2700
F 0 "#PWR0103" H 3900 2450 50  0001 C CNN
F 1 "GND" H 3905 2527 50  0000 C CNN
F 2 "" H 3900 2700 50  0001 C CNN
F 3 "" H 3900 2700 50  0001 C CNN
	1    3900 2700
	1    0    0    -1  
$EndComp
Wire Wire Line
	3600 2700 3600 2650
Wire Wire Line
	3550 2400 3600 2400
Wire Wire Line
	3600 2400 3600 2450
Wire Wire Line
	2600 1400 2650 1400
Wire Wire Line
	3900 2700 3900 2650
Wire Wire Line
	3900 2450 3900 2300
Wire Wire Line
	3900 2300 3550 2300
$Comp
L Connector:Conn_Coaxial J3
U 1 1 60853C11
P 3550 5300
F 0 "J3" H 3650 5275 50  0000 L CNN
F 1 "RF" H 3650 5184 50  0000 L CNN
F 2 "knightshrub-Connectors:Cinch 25-7652" H 3550 5300 50  0001 C CNN
F 3 " ~" H 3550 5300 50  0001 C CNN
	1    3550 5300
	1    0    0    -1  
$EndComp
$Comp
L Device:C_Small C9
U 1 1 60854E7B
P 3150 5300
F 0 "C9" V 2921 5300 50  0000 C CNN
F 1 "68p" V 3012 5300 50  0000 C CNN
F 2 "Capacitor_SMD:C_0402_1005Metric" H 3150 5300 50  0001 C CNN
F 3 "~" H 3150 5300 50  0001 C CNN
F 4 "RF15N680J500CT" V 3150 5300 50  0001 C CNN "Mouser"
	1    3150 5300
	0    1    1    0   
$EndComp
$Comp
L Device:L_Small L2
U 1 1 6085691F
P 2650 5100
F 0 "L2" H 2698 5146 50  0000 L CNN
F 1 "180n" H 2698 5055 50  0000 L CNN
F 2 "knightshrub-Passives:2222SQ-181GEC" H 2650 5100 50  0001 C CNN
F 3 "~" H 2650 5100 50  0001 C CNN
F 4 "2222SQ-181GEC" H 2650 5100 50  0001 C CNN "Mouser"
	1    2650 5100
	1    0    0    -1  
$EndComp
$Comp
L power:GND #PWR0104
U 1 1 60858A33
P 2350 5550
F 0 "#PWR0104" H 2350 5300 50  0001 C CNN
F 1 "GND" H 2355 5377 50  0000 C CNN
F 2 "" H 2350 5550 50  0001 C CNN
F 3 "" H 2350 5550 50  0001 C CNN
	1    2350 5550
	1    0    0    -1  
$EndComp
$Comp
L power:GND #PWR0105
U 1 1 60858B7E
P 3550 5550
F 0 "#PWR0105" H 3550 5300 50  0001 C CNN
F 1 "GND" H 3555 5377 50  0000 C CNN
F 2 "" H 3550 5550 50  0001 C CNN
F 3 "" H 3550 5550 50  0001 C CNN
	1    3550 5550
	1    0    0    -1  
$EndComp
Wire Wire Line
	3550 5550 3550 5500
Wire Wire Line
	3350 5300 3250 5300
Wire Wire Line
	2650 5200 2650 5300
Connection ~ 2650 5300
Wire Wire Line
	2650 5300 2550 5300
Wire Wire Line
	2650 5300 3050 5300
Wire Wire Line
	2350 5550 2350 5500
$Comp
L Connector:Conn_Coaxial J2
U 1 1 6085380E
P 2350 5300
F 0 "J2" H 2278 5538 50  0000 C CNN
F 1 "RF+DC" H 2278 5447 50  0000 C CNN
F 2 "knightshrub-Connectors:Cinch 25-7652" H 2350 5300 50  0001 C CNN
F 3 " ~" H 2350 5300 50  0001 C CNN
	1    2350 5300
	-1   0    0    -1  
$EndComp
$Comp
L power:GND #PWR0106
U 1 1 6085F553
P 2150 1800
F 0 "#PWR0106" H 2150 1550 50  0001 C CNN
F 1 "GND" V 2155 1672 50  0000 R CNN
F 2 "" H 2150 1800 50  0001 C CNN
F 3 "" H 2150 1800 50  0001 C CNN
	1    2150 1800
	1    0    0    -1  
$EndComp
Wire Wire Line
	2950 1050 3100 1050
Wire Wire Line
	3100 1050 3100 1200
Connection ~ 3100 1050
Wire Wire Line
	3100 1050 3250 1050
Wire Wire Line
	2750 1050 2600 1050
Wire Wire Line
	2600 1050 2600 1400
Wire Wire Line
	4000 1050 4000 1650
NoConn ~ 3550 2100
Wire Wire Line
	4000 1900 4000 1850
$Comp
L Device:C_Small C3
U 1 1 6087E45C
P 4400 1200
F 0 "C3" H 4308 1154 50  0000 R CNN
F 1 "22u" H 4308 1245 50  0000 R CNN
F 2 "Capacitor_SMD:C_1206_3216Metric_Pad1.33x1.80mm_HandSolder" H 4400 1200 50  0001 C CNN
F 3 "~" H 4400 1200 50  0001 C CNN
F 4 "C3216X5R1V226M160AC" H 4400 1200 50  0001 C CNN "Mouser"
	1    4400 1200
	1    0    0    1   
$EndComp
$Comp
L Device:C_Small C4
U 1 1 6087E78D
P 4550 1200
F 0 "C4" H 4458 1154 50  0000 R CNN
F 1 "22u" H 4458 1245 50  0000 R CNN
F 2 "Capacitor_SMD:C_1206_3216Metric_Pad1.33x1.80mm_HandSolder" H 4550 1200 50  0001 C CNN
F 3 "~" H 4550 1200 50  0001 C CNN
F 4 "C3216X5R1V226M160AC" H 4550 1200 50  0001 C CNN "Mouser"
	1    4550 1200
	-1   0    0    1   
$EndComp
$Comp
L power:GND #PWR0107
U 1 1 6087F556
P 4400 1350
F 0 "#PWR0107" H 4400 1100 50  0001 C CNN
F 1 "GND" H 4405 1177 50  0000 C CNN
F 2 "" H 4400 1350 50  0001 C CNN
F 3 "" H 4400 1350 50  0001 C CNN
	1    4400 1350
	1    0    0    -1  
$EndComp
$Comp
L power:GND #PWR0108
U 1 1 6087F801
P 4550 1350
F 0 "#PWR0108" H 4550 1100 50  0001 C CNN
F 1 "GND" H 4555 1177 50  0000 C CNN
F 2 "" H 4550 1350 50  0001 C CNN
F 3 "" H 4550 1350 50  0001 C CNN
	1    4550 1350
	1    0    0    -1  
$EndComp
Wire Wire Line
	4550 1100 4550 1050
Wire Wire Line
	4400 1100 4400 1050
Wire Wire Line
	4400 1050 4550 1050
Wire Wire Line
	4400 1300 4400 1350
Wire Wire Line
	4550 1300 4550 1350
$Comp
L Device:D_Schottky_Small D3
U 1 1 608883A7
P 4900 2050
F 0 "D3" V 4854 2120 50  0000 L CNN
F 1 "PMEG40T50EPX" V 4945 2120 50  0000 L CNN
F 2 "Diode_SMD:D_SOD-128" V 4900 2050 50  0001 C CNN
F 3 "~" V 4900 2050 50  0001 C CNN
	1    4900 2050
	0    1    1    0   
$EndComp
$Comp
L Device:C_Small C7
U 1 1 60888A31
P 4750 2050
F 0 "C7" H 4658 2004 50  0000 R CNN
F 1 "100n" H 4658 2095 50  0000 R CNN
F 2 "Capacitor_SMD:C_0603_1608Metric_Pad1.08x0.95mm_HandSolder" H 4750 2050 50  0001 C CNN
F 3 "~" H 4750 2050 50  0001 C CNN
	1    4750 2050
	1    0    0    1   
$EndComp
Wire Wire Line
	4900 1900 4900 1950
Wire Wire Line
	4750 1950 4750 1900
$Comp
L power:GND #PWR0109
U 1 1 6088C53B
P 4750 2200
F 0 "#PWR0109" H 4750 1950 50  0001 C CNN
F 1 "GND" H 4755 2027 50  0000 C CNN
F 2 "" H 4750 2200 50  0001 C CNN
F 3 "" H 4750 2200 50  0001 C CNN
	1    4750 2200
	1    0    0    -1  
$EndComp
$Comp
L power:GND #PWR0110
U 1 1 6088C7D9
P 4900 2200
F 0 "#PWR0110" H 4900 1950 50  0001 C CNN
F 1 "GND" H 4905 2027 50  0000 C CNN
F 2 "" H 4900 2200 50  0001 C CNN
F 3 "" H 4900 2200 50  0001 C CNN
	1    4900 2200
	1    0    0    -1  
$EndComp
Wire Wire Line
	4900 2200 4900 2150
Wire Wire Line
	4750 2200 4750 2150
Connection ~ 4750 1900
Wire Wire Line
	4750 1900 4900 1900
Wire Wire Line
	3550 1400 3650 1400
Wire Wire Line
	4400 1050 4000 1050
Connection ~ 4400 1050
Connection ~ 4000 1900
Wire Wire Line
	4000 1900 4750 1900
NoConn ~ 2650 1900
Text Label 2400 1600 0    50   ~ 0
EN
Wire Wire Line
	2400 1600 2650 1600
Wire Wire Line
	2400 1800 2650 1800
Text Label 2400 2100 0    50   ~ 0
BAND
Text Label 2400 1800 0    50   ~ 0
POL
Wire Wire Line
	2400 2100 2650 2100
$Comp
L power:GND #PWR0111
U 1 1 608CEF0C
P 1300 1200
F 0 "#PWR0111" H 1300 950 50  0001 C CNN
F 1 "GND" V 1305 1072 50  0000 R CNN
F 2 "" H 1300 1200 50  0001 C CNN
F 3 "" H 1300 1200 50  0001 C CNN
	1    1300 1200
	1    0    0    -1  
$EndComp
Wire Wire Line
	1300 1200 1300 1150
$Comp
L power:VDC #PWR0112
U 1 1 608D345D
P 4900 1850
F 0 "#PWR0112" H 4900 1750 50  0001 C CNN
F 1 "VDC" H 4915 2023 50  0000 C CNN
F 2 "" H 4900 1850 50  0001 C CNN
F 3 "" H 4900 1850 50  0001 C CNN
	1    4900 1850
	1    0    0    -1  
$EndComp
Wire Wire Line
	1300 850  1300 1050
Wire Wire Line
	1300 1050 1200 1050
$Comp
L Device:C_Small C1
U 1 1 608D8332
P 1600 1200
F 0 "C1" H 1508 1154 50  0000 R CNN
F 1 "10u" H 1508 1245 50  0000 R CNN
F 2 "Capacitor_SMD:C_0805_2012Metric_Pad1.18x1.45mm_HandSolder" H 1600 1200 50  0001 C CNN
F 3 "~" H 1600 1200 50  0001 C CNN
	1    1600 1200
	-1   0    0    1   
$EndComp
$Comp
L power:GND #PWR0113
U 1 1 608DEBDD
P 1600 1350
F 0 "#PWR0113" H 1600 1100 50  0001 C CNN
F 1 "GND" V 1605 1222 50  0000 R CNN
F 2 "" H 1600 1350 50  0001 C CNN
F 3 "" H 1600 1350 50  0001 C CNN
	1    1600 1350
	1    0    0    -1  
$EndComp
Wire Wire Line
	1600 1050 1600 1100
Connection ~ 2600 1050
Wire Wire Line
	1600 1300 1600 1350
Wire Wire Line
	1300 1050 1600 1050
Connection ~ 1300 1050
Connection ~ 1600 1050
$Comp
L power:+12V #PWR0114
U 1 1 608EDFE8
P 1300 850
F 0 "#PWR0114" H 1300 700 50  0001 C CNN
F 1 "+12V" H 1315 1023 50  0000 C CNN
F 2 "" H 1300 850 50  0001 C CNN
F 3 "" H 1300 850 50  0001 C CNN
	1    1300 850 
	1    0    0    -1  
$EndComp
Wire Wire Line
	4900 1850 4900 1900
Connection ~ 4900 1900
$Comp
L power:VDC #PWR0115
U 1 1 60900E47
P 2650 4950
F 0 "#PWR0115" H 2650 4850 50  0001 C CNN
F 1 "VDC" H 2665 5123 50  0000 C CNN
F 2 "" H 2650 4950 50  0001 C CNN
F 3 "" H 2650 4950 50  0001 C CNN
	1    2650 4950
	1    0    0    -1  
$EndComp
Wire Wire Line
	2650 4950 2650 5000
$Comp
L Switch:SW_DIP_x04 SW1
U 1 1 60914CCA
P 3150 3800
F 0 "SW1" H 3150 4267 50  0000 C CNN
F 1 "SW_DIP_x04" H 3150 4176 50  0000 C CNN
F 2 "knightshrub-Switches:CTS-219-4ES" H 3150 3800 50  0001 C CNN
F 3 "~" H 3150 3800 50  0001 C CNN
	1    3150 3800
	1    0    0    -1  
$EndComp
$Comp
L power:GND #PWR0116
U 1 1 60917796
P 3500 3950
F 0 "#PWR0116" H 3500 3700 50  0001 C CNN
F 1 "GND" H 3505 3777 50  0000 C CNN
F 2 "" H 3500 3950 50  0001 C CNN
F 3 "" H 3500 3950 50  0001 C CNN
	1    3500 3950
	-1   0    0    -1  
$EndComp
Wire Wire Line
	3500 3600 3450 3600
Wire Wire Line
	3500 3600 3500 3700
Wire Wire Line
	3450 3900 3500 3900
Connection ~ 3500 3900
Wire Wire Line
	3500 3900 3500 3950
Wire Wire Line
	3450 3800 3500 3800
Connection ~ 3500 3800
Wire Wire Line
	3500 3800 3500 3900
Wire Wire Line
	3450 3700 3500 3700
Connection ~ 3500 3700
Wire Wire Line
	3500 3700 3500 3800
Text Label 2600 3600 0    50   ~ 0
EN
Text Label 2600 3800 0    50   ~ 0
VADJ
Text Label 2600 3700 0    50   ~ 0
POL
Text Label 2600 3900 0    50   ~ 0
BAND
$Comp
L Device:R_Small R3
U 1 1 6096296E
P 2450 3600
F 0 "R3" V 2400 3600 50  0000 C CNN
F 1 "120k" V 2500 3600 50  0000 C CNN
F 2 "Resistor_SMD:R_0603_1608Metric_Pad0.98x0.95mm_HandSolder" H 2450 3600 50  0001 C CNN
F 3 "~" H 2450 3600 50  0001 C CNN
	1    2450 3600
	0    -1   1    0   
$EndComp
$Comp
L Device:R_Small R4
U 1 1 6096309F
P 2250 3700
F 0 "R4" V 2300 3700 50  0000 C CNN
F 1 "120k" V 2200 3700 50  0000 C CNN
F 2 "Resistor_SMD:R_0603_1608Metric_Pad0.98x0.95mm_HandSolder" H 2250 3700 50  0001 C CNN
F 3 "~" H 2250 3700 50  0001 C CNN
	1    2250 3700
	0    1    -1   0   
$EndComp
$Comp
L Device:R_Small R5
U 1 1 60966893
P 2450 3800
F 0 "R5" V 2500 3800 50  0000 C CNN
F 1 "120k" V 2400 3800 50  0000 C CNN
F 2 "Resistor_SMD:R_0603_1608Metric_Pad0.98x0.95mm_HandSolder" H 2450 3800 50  0001 C CNN
F 3 "~" H 2450 3800 50  0001 C CNN
	1    2450 3800
	0    1    -1   0   
$EndComp
$Comp
L Device:R_Small R6
U 1 1 60966B44
P 2250 3900
F 0 "R6" V 2200 3900 50  0000 C CNN
F 1 "120k" V 2300 3900 50  0000 C CNN
F 2 "Resistor_SMD:R_0603_1608Metric_Pad0.98x0.95mm_HandSolder" H 2250 3900 50  0001 C CNN
F 3 "~" H 2250 3900 50  0001 C CNN
	1    2250 3900
	0    1    1    0   
$EndComp
$Comp
L Device:R_Small R2
U 1 1 60967054
P 2000 3400
F 0 "R2" H 1941 3446 50  0000 R CNN
F 1 "5k6" H 1941 3355 50  0000 R CNN
F 2 "Resistor_SMD:R_0603_1608Metric_Pad0.98x0.95mm_HandSolder" H 2000 3400 50  0001 C CNN
F 3 "~" H 2000 3400 50  0001 C CNN
	1    2000 3400
	-1   0    0    -1  
$EndComp
$Comp
L Device:D_Zener_Small D4
U 1 1 60967953
P 2000 4100
F 0 "D4" V 1954 4030 50  0000 R CNN
F 1 " MMSZ5231B-7-F" V 2045 4030 50  0000 R CNN
F 2 "Diode_SMD:D_SOD-123" V 2000 4100 50  0001 C CNN
F 3 "~" V 2000 4100 50  0001 C CNN
	1    2000 4100
	0    -1   1    0   
$EndComp
$Comp
L power:GND #PWR0117
U 1 1 60968CCF
P 2000 4250
F 0 "#PWR0117" H 2000 4000 50  0001 C CNN
F 1 "GND" H 2005 4077 50  0000 C CNN
F 2 "" H 2000 4250 50  0001 C CNN
F 3 "" H 2000 4250 50  0001 C CNN
	1    2000 4250
	-1   0    0    -1  
$EndComp
$Comp
L power:+12V #PWR0118
U 1 1 60969EF7
P 2000 3250
F 0 "#PWR0118" H 2000 3100 50  0001 C CNN
F 1 "+12V" H 2015 3423 50  0000 C CNN
F 2 "" H 2000 3250 50  0001 C CNN
F 3 "" H 2000 3250 50  0001 C CNN
	1    2000 3250
	-1   0    0    -1  
$EndComp
Wire Wire Line
	2000 4200 2000 4250
Wire Wire Line
	2000 3250 2000 3300
Wire Wire Line
	2350 3900 2850 3900
Wire Wire Line
	2850 3800 2550 3800
Wire Wire Line
	2350 3700 2850 3700
Wire Wire Line
	2850 3600 2550 3600
$Comp
L Connector_Generic:Conn_01x02 J1
U 1 1 609CD2BB
P 1000 1050
F 0 "J1" H 918 1267 50  0000 C CNN
F 1 "DC in" H 918 1176 50  0000 C CNN
F 2 "Connector_PinHeader_2.54mm:PinHeader_1x02_P2.54mm_Vertical" H 1000 1050 50  0001 C CNN
F 3 "~" H 1000 1050 50  0001 C CNN
	1    1000 1050
	-1   0    0    -1  
$EndComp
Wire Wire Line
	1300 1150 1200 1150
$Comp
L knightshrub:TPS652353 U1
U 1 1 609E842A
P 3100 1900
F 0 "U1" H 3100 1200 50  0000 C CNN
F 1 "TPS652353" H 3100 1100 50  0000 C CNN
F 2 "Package_DFN_QFN:QFN-20-1EP_3x3mm_P0.4mm_EP1.65x1.65mm_ThermalVias" H 3350 2550 50  0001 C CNN
F 3 "https://www.ti.com/lit/gpn/tps652353" H 3350 2550 50  0001 C CNN
	1    3100 1900
	1    0    0    -1  
$EndComp
NoConn ~ 3550 2200
Wire Wire Line
	3550 1900 3650 1900
Wire Wire Line
	3650 1850 3650 1900
Connection ~ 3650 1900
Wire Wire Line
	3650 1900 4000 1900
Wire Wire Line
	3650 1650 3550 1650
Wire Wire Line
	3450 1050 3650 1050
Connection ~ 4000 1050
Wire Wire Line
	3650 1400 3650 1050
Connection ~ 3650 1050
Wire Wire Line
	3650 1050 4000 1050
NoConn ~ 3550 2000
NoConn ~ 2650 1700
NoConn ~ 2650 2200
Wire Wire Line
	2400 2000 2650 2000
Text Label 2400 2000 0    50   ~ 0
VADJ
Wire Wire Line
	2000 3500 2000 3600
Connection ~ 2000 3600
Wire Wire Line
	2000 3600 2000 3700
Wire Wire Line
	2000 3600 2250 3600
Wire Wire Line
	2150 3700 2000 3700
Connection ~ 2000 3700
Wire Wire Line
	2000 3700 2000 3800
Wire Wire Line
	2000 3800 2350 3800
Connection ~ 2000 3800
Wire Wire Line
	2000 3800 2000 3900
Wire Wire Line
	2150 3900 2000 3900
Connection ~ 2000 3900
Wire Wire Line
	2000 3900 2000 4000
Wire Wire Line
	2150 1500 2150 1550
Wire Wire Line
	2150 1500 2650 1500
Wire Wire Line
	2150 1750 2150 1800
$Comp
L Device:C_Small C2
U 1 1 60A8E2A2
P 1950 1200
F 0 "C2" H 2042 1246 50  0000 L CNN
F 1 "1u" H 2042 1155 50  0000 L CNN
F 2 "Capacitor_SMD:C_0805_2012Metric_Pad1.18x1.45mm_HandSolder" H 1950 1200 50  0001 C CNN
F 3 "~" H 1950 1200 50  0001 C CNN
	1    1950 1200
	1    0    0    -1  
$EndComp
$Comp
L power:GND #PWR0119
U 1 1 60A8E70A
P 1950 1350
F 0 "#PWR0119" H 1950 1100 50  0001 C CNN
F 1 "GND" V 1955 1222 50  0000 R CNN
F 2 "" H 1950 1350 50  0001 C CNN
F 3 "" H 1950 1350 50  0001 C CNN
	1    1950 1350
	1    0    0    -1  
$EndComp
Wire Wire Line
	1950 1300 1950 1350
Wire Wire Line
	1600 1050 1950 1050
Wire Wire Line
	1950 1100 1950 1050
Connection ~ 1950 1050
Wire Wire Line
	1950 1050 2600 1050
Text Label 2650 5300 0    50   ~ 0
RFDC
Text Label 3250 5300 0    50   ~ 0
RF
Text Notes 2300 6500 0    50   ~ 0
RF and RFDC are 75 Ohm CPWG lines\nmanufactured on FR-4 (not ideal)\nPCB thickness: 1.6 mm\nLine width: 0.66 mm\nGround spacing: 0.384 mm\n\nSRF of L2 and C9 must be above\nintended operating frequency (ca. 740 MHz)!
Wire Wire Line
	2650 2500 2600 2500
Connection ~ 2600 2500
Wire Wire Line
	2600 2500 2600 2400
Text Label 3000 1050 0    50   ~ 0
LX
Text Label 3650 1050 0    50   ~ 0
BOOST
$Comp
L power:+5V #PWR?
U 1 1 608A349F
P 2250 3500
F 0 "#PWR?" H 2250 3350 50  0001 C CNN
F 1 "+5V" H 2265 3673 50  0000 C CNN
F 2 "" H 2250 3500 50  0001 C CNN
F 3 "" H 2250 3500 50  0001 C CNN
	1    2250 3500
	1    0    0    -1  
$EndComp
Wire Wire Line
	2250 3500 2250 3600
Connection ~ 2250 3600
Wire Wire Line
	2250 3600 2350 3600
$EndSCHEMATC
